…
Parsed with column specification:
cols(
  OBJECTID_1 = col_double(),
  OBJECTID = col_double(),
  County = col_character(),
  FIPS = col_double(),
  COUNTYFP10 = col_character(),
  Shape_Leng = col_double(),
  Count_ = col_double(),
  LastUpdate = col_datetime(format = ""),
  Shape__Area = col_double(),
  Shape__Length = col_double(),
  Deaths = col_double()
)
# A tibble: 254 x 5
   County    Cases Date       Deaths LastUpdate         
   <chr>     <dbl> <date>      <dbl> <dttm>             
 1 Anderson      0 2020-03-27      0 2020-03-27 17:17:31
 2 Andrews       0 2020-03-27      0 2020-03-27 17:17:31
 3 Angelina      2 2020-03-27      0 2020-03-27 17:17:31
 4 Aransas       0 2020-03-27      0 2020-03-27 17:17:31
 5 Archer        0 2020-03-27      0 2020-03-27 17:17:31
 6 Armstrong     0 2020-03-27      0 2020-03-27 17:17:31
 7 Atascosa      2 2020-03-27      0 2020-03-27 17:17:31
 8 Austin        1 2020-03-27      0 2020-03-27 17:17:31
 9 Bailey        0 2020-03-27      0 2020-03-27 17:17:31
10 Bandera       0 2020-03-27      0 2020-03-27 17:17:31
# … with 244 more rows
…
Parsed with column specification:
cols(
  OBJECTID_1 = col_double(),
  OBJECTID = col_double(),
  County = col_character(),
  FIPS = col_double(),
  COUNTYFP10 = col_character(),
  Shape_Leng = col_double(),
  Count_ = col_double(),
  LastUpdate = col_datetime(format = ""),
  Shape__Area = col_double(),
  Shape__Length = col_double(),
  Deaths = col_double()
)
# A tibble: 254 x 5
   County    Cases Date       Deaths LastUpdate         
   <chr>     <dbl> <date>      <dbl> <chr>              
 1 Anderson      0 2020-03-27      0 2020-03-27 17:17:31
 2 Andrews       0 2020-03-27      0 2020-03-27 17:17:31
 3 Angelina      2 2020-03-27      0 2020-03-27 17:17:31
 4 Aransas       0 2020-03-27      0 2020-03-27 17:17:31
 5 Archer        0 2020-03-27      0 2020-03-27 17:17:31
 6 Armstrong     0 2020-03-27      0 2020-03-27 17:17:31
 7 Atascosa      2 2020-03-27      0 2020-03-27 17:17:31
 8 Austin        1 2020-03-27      0 2020-03-27 17:17:31
 9 Bailey        0 2020-03-27      0 2020-03-27 17:17:31
10 Bandera       0 2020-03-27      0 2020-03-27 17:17:31
# … with 244 more rows
…
Parsed with column specification:
cols(
  OBJECTID_1 = col_double(),
  OBJECTID = col_double(),
  County = col_character(),
  FIPS = col_double(),
  COUNTYFP10 = col_character(),
  Shape_Leng = col_double(),
  Count_ = col_double(),
  LastUpdate = col_datetime(format = ""),
  Shape__Area = col_double(),
  Shape__Length = col_double(),
  Deaths = col_double()
)
# A tibble: 254 x 5
   County    Cases Date       Deaths LastUpdate         
   <chr>     <dbl> <date>      <dbl> <chr>              
 1 Anderson      0 2020-03-28      0 2020-03-28 16:54:07
 2 Andrews       1 2020-03-28      0 2020-03-28 16:54:07
 3 Angelina      1 2020-03-28      0 2020-03-28 16:54:07
 4 Aransas       0 2020-03-28      0 2020-03-28 16:54:07
 5 Archer        0 2020-03-28      0 2020-03-28 16:54:07
 6 Armstrong     0 2020-03-28      0 2020-03-28 16:54:07
 7 Atascosa      2 2020-03-28      0 2020-03-28 16:54:07
 8 Austin        1 2020-03-28      0 2020-03-28 16:54:07
 9 Bailey        0 2020-03-28      0 2020-03-28 16:54:07
10 Bandera       0 2020-03-28      0 2020-03-28 16:54:07
# … with 244 more rows
…
Parsed with column specification:
cols(
  OBJECTID_1 = col_double(),
  OBJECTID = col_double(),
  County = col_character(),
  FIPS = col_double(),
  COUNTYFP10 = col_character(),
  Shape_Leng = col_double(),
  Count_ = col_double(),
  LastUpdate = col_datetime(format = ""),
  Shape__Area = col_double(),
  Shape__Length = col_double(),
  Deaths = col_double()
)
# A tibble: 254 x 5
   County    Cases Date       Deaths LastUpdate         
   <chr>     <dbl> <date>      <dbl> <chr>              
 1 Anderson      0 2020-03-28      0 2020-03-28 16:54:07
 2 Andrews       1 2020-03-28      0 2020-03-28 16:54:07
 3 Angelina      1 2020-03-28      0 2020-03-28 16:54:07
 4 Aransas       0 2020-03-28      0 2020-03-28 16:54:07
 5 Archer        0 2020-03-28      0 2020-03-28 16:54:07
 6 Armstrong     0 2020-03-28      0 2020-03-28 16:54:07
 7 Atascosa      2 2020-03-28      0 2020-03-28 16:54:07
 8 Austin        1 2020-03-28      0 2020-03-28 16:54:07
 9 Bailey        0 2020-03-28      0 2020-03-28 16:54:07
10 Bandera       0 2020-03-28      0 2020-03-28 16:54:07
# … with 244 more rows
…
Parsed with column specification:
cols(
  OBJECTID_1 = col_double(),
  OBJECTID = col_double(),
  County = col_character(),
  FIPS = col_double(),
  COUNTYFP10 = col_character(),
  Shape_Leng = col_double(),
  Count_ = col_double(),
  LastUpdate = col_datetime(format = ""),
  Shape__Area = col_double(),
  Shape__Length = col_double(),
  Deaths = col_double()
)
# A tibble: 254 x 5
   County    Cases Date       Deaths LastUpdate         
   <chr>     <dbl> <date>      <dbl> <chr>              
 1 Anderson      0 2020-03-28      0 2020-03-29 17:43:40
 2 Andrews       0 2020-03-28      0 2020-03-29 17:43:40
 3 Angelina      3 2020-03-28      0 2020-03-29 17:43:40
 4 Aransas       0 2020-03-28      0 2020-03-29 17:43:40
 5 Archer        0 2020-03-28      0 2020-03-29 17:43:40
 6 Armstrong     0 2020-03-28      0 2020-03-29 17:43:40
 7 Atascosa      2 2020-03-28      0 2020-03-29 17:43:40
 8 Austin        2 2020-03-28      0 2020-03-29 17:43:40
 9 Bailey        0 2020-03-28      0 2020-03-29 17:43:40
10 Bandera       0 2020-03-28      0 2020-03-29 17:43:40
# … with 244 more rows
…
Parsed with column specification:
cols(
  OBJECTID_1 = col_double(),
  OBJECTID = col_double(),
  County = col_character(),
  FIPS = col_double(),
  COUNTYFP10 = col_character(),
  Shape_Leng = col_double(),
  Count_ = col_double(),
  LastUpdate = col_datetime(format = ""),
  Shape__Area = col_double(),
  Shape__Length = col_double(),
  Deaths = col_double()
)
# A tibble: 254 x 5
   County    Cases Date       Deaths LastUpdate         
   <chr>     <dbl> <date>      <dbl> <chr>              
 1 Anderson      0 2020-03-29      0 2020-03-30 16:47:01
 2 Andrews       0 2020-03-29      0 2020-03-30 16:47:01
 3 Angelina      3 2020-03-29      0 2020-03-30 16:47:01
 4 Aransas       2 2020-03-29      0 2020-03-30 16:47:01
 5 Archer        0 2020-03-29      0 2020-03-30 16:47:01
 6 Armstrong     0 2020-03-29      0 2020-03-30 16:47:01
 7 Atascosa      2 2020-03-29      0 2020-03-30 16:47:01
 8 Austin        2 2020-03-29      0 2020-03-30 16:47:01
 9 Bailey        0 2020-03-29      0 2020-03-30 16:47:01
10 Bandera       0 2020-03-29      0 2020-03-30 16:47:01
# … with 244 more rows
…
Parsed with column specification:
cols(
  OBJECTID_1 = col_double(),
  OBJECTID = col_double(),
  County = col_character(),
  FIPS = col_double(),
  COUNTYFP10 = col_character(),
  Shape_Leng = col_double(),
  Count_ = col_double(),
  LastUpdate = col_datetime(format = ""),
  Shape__Area = col_double(),
  Shape__Length = col_double(),
  Deaths = col_double()
)
# A tibble: 254 x 5
   County    Cases Date       Deaths LastUpdate         
   <chr>     <dbl> <date>      <dbl> <chr>              
 1 Anderson      0 2020-03-30      0 2020-03-30 16:47:01
 2 Andrews       0 2020-03-30      0 2020-03-30 16:47:01
 3 Angelina      4 2020-03-30      0 2020-03-30 16:47:01
 4 Aransas       0 2020-03-30      0 2020-03-30 16:47:01
 5 Archer        0 2020-03-30      0 2020-03-30 16:47:01
 6 Armstrong     0 2020-03-30      0 2020-03-30 16:47:01
 7 Atascosa      2 2020-03-30      0 2020-03-30 16:47:01
 8 Austin        2 2020-03-30      0 2020-03-30 16:47:01
 9 Bailey        0 2020-03-30      0 2020-03-30 16:47:01
10 Bandera       0 2020-03-30      0 2020-03-30 16:47:01
# … with 244 more rows
…
Parsed with column specification:
cols(
  OBJECTID_1 = col_double(),
  OBJECTID = col_double(),
  County = col_character(),
  FIPS = col_double(),
  COUNTYFP10 = col_character(),
  Shape_Leng = col_double(),
  Count_ = col_double(),
  LastUpdate = col_datetime(format = ""),
  Shape__Area = col_double(),
  Shape__Length = col_double(),
  Deaths = col_double()
)
# A tibble: 254 x 5
   County    Cases Date       Deaths LastUpdate         
   <chr>     <dbl> <date>      <dbl> <chr>              
 1 Anderson      1 2020-03-31      0 2020-03-30 16:47:01
 2 Andrews       0 2020-03-31      0 2020-03-30 16:47:01
 3 Angelina      5 2020-03-31      0 2020-03-30 16:47:01
 4 Aransas       0 2020-03-31      0 2020-03-30 16:47:01
 5 Archer        0 2020-03-31      0 2020-03-30 16:47:01
 6 Armstrong     0 2020-03-31      0 2020-03-30 16:47:01
 7 Atascosa      2 2020-03-31      0 2020-03-30 16:47:01
 8 Austin        2 2020-03-31      0 2020-03-30 16:47:01
 9 Bailey        0 2020-03-31      0 2020-03-30 16:47:01
10 Bandera       0 2020-03-31      0 2020-03-30 16:47:01
# … with 244 more rows
…
Parsed with column specification:
cols(
  OBJECTID_1 = col_double(),
  OBJECTID = col_double(),
  County = col_character(),
  FIPS = col_double(),
  COUNTYFP10 = col_character(),
  Shape_Leng = col_double(),
  Count_ = col_double(),
  LastUpdate = col_datetime(format = ""),
  Shape__Area = col_double(),
  Shape__Length = col_double(),
  Deaths = col_double()
)
# A tibble: 254 x 5
   County    Cases Date       Deaths LastUpdate         
   <chr>     <dbl> <date>      <dbl> <chr>              
 1 Anderson      1 2020-04-01      0 2020-04-02 16:52:19
 2 Andrews       0 2020-04-01      0 2020-04-02 16:52:19
 3 Angelina      5 2020-04-01      0 2020-04-02 16:52:19
 4 Aransas       0 2020-04-01      0 2020-04-02 16:52:19
 5 Archer        0 2020-04-01      0 2020-04-02 16:52:19
 6 Armstrong     0 2020-04-01      0 2020-04-02 16:52:19
 7 Atascosa      2 2020-04-01      0 2020-04-02 16:52:19
 8 Austin        4 2020-04-01      0 2020-04-02 16:52:19
 9 Bailey        0 2020-04-01      0 2020-04-02 16:52:19
10 Bandera       0 2020-04-01      0 2020-04-02 16:52:19
# … with 244 more rows
…
Parsed with column specification:
cols(
  OBJECTID_1 = col_double(),
  OBJECTID = col_double(),
  County = col_character(),
  FIPS = col_double(),
  COUNTYFP10 = col_character(),
  Shape_Leng = col_double(),
  Count_ = col_double(),
  LastUpdate = col_datetime(format = ""),
  Shape__Area = col_double(),
  Shape__Length = col_double(),
  Deaths = col_double()
)
# A tibble: 254 x 5
   County    Cases Date       Deaths LastUpdate         
   <chr>     <dbl> <date>      <dbl> <chr>              
 1 Anderson      1 2020-04-02      0 2020-04-03 16:58:47
 2 Andrews       0 2020-04-02      0 2020-04-03 16:58:47
 3 Angelina      8 2020-04-02      0 2020-04-03 16:58:47
 4 Aransas       0 2020-04-02      0 2020-04-03 16:58:47
 5 Archer        0 2020-04-02      0 2020-04-03 16:58:47
 6 Armstrong     0 2020-04-02      0 2020-04-03 16:58:47
 7 Atascosa      2 2020-04-02      0 2020-04-03 16:58:47
 8 Austin        4 2020-04-02      0 2020-04-03 16:58:47
 9 Bailey        0 2020-04-02      0 2020-04-03 16:58:47
10 Bandera       0 2020-04-02      0 2020-04-03 16:58:47
# … with 244 more rows
…
Parsed with column specification:
cols(
  OBJECTID_1 = col_double(),
  OBJECTID = col_double(),
  County = col_character(),
  FIPS = col_double(),
  COUNTYFP10 = col_character(),
  Shape_Leng = col_double(),
  Count_ = col_double(),
  LastUpdate = col_datetime(format = ""),
  Shape__Area = col_double(),
  Shape__Length = col_double(),
  Deaths = col_double()
)
# A tibble: 254 x 5
   County    Cases Date       Deaths LastUpdate         
   <chr>     <dbl> <date>      <dbl> <chr>              
 1 Anderson      1 2020-04-03      0 2020-04-04 17:23:25
 2 Andrews       1 2020-04-03      0 2020-04-04 17:23:25
 3 Angelina     10 2020-04-03      0 2020-04-04 17:23:25
 4 Aransas       0 2020-04-03      0 2020-04-04 17:23:25
 5 Archer        0 2020-04-03      0 2020-04-04 17:23:25
 6 Armstrong     0 2020-04-03      0 2020-04-04 17:23:25
 7 Atascosa      2 2020-04-03      0 2020-04-04 17:23:25
 8 Austin        4 2020-04-03      0 2020-04-04 17:23:25
 9 Bailey        0 2020-04-03      0 2020-04-04 17:23:25
10 Bandera       0 2020-04-03      0 2020-04-04 17:23:25
# … with 244 more rows
…
Parsed with column specification:
cols(
  OBJECTID_1 = col_double(),
  OBJECTID = col_double(),
  County = col_character(),
  FIPS = col_double(),
  COUNTYFP10 = col_character(),
  Shape_Leng = col_double(),
  Count_ = col_double(),
  LastUpdate = col_datetime(format = ""),
  Shape__Area = col_double(),
  Shape__Length = col_double(),
  Deaths = col_double()
)
# A tibble: 254 x 5
   County    Cases Date       Deaths LastUpdate         
   <chr>     <dbl> <date>      <dbl> <chr>              
 1 Anderson      1 2020-04-04      0 2020-04-05 16:46:14
 2 Andrews       6 2020-04-04      0 2020-04-05 16:46:14
 3 Angelina     10 2020-04-04      0 2020-04-05 16:46:14
 4 Aransas       1 2020-04-04      0 2020-04-05 16:46:14
 5 Archer        0 2020-04-04      0 2020-04-05 16:46:14
 6 Armstrong     0 2020-04-04      0 2020-04-05 16:46:14
 7 Atascosa      2 2020-04-04      0 2020-04-05 16:46:14
 8 Austin        5 2020-04-04      0 2020-04-05 16:46:14
 9 Bailey        0 2020-04-04      0 2020-04-05 16:46:14
10 Bandera       0 2020-04-04      0 2020-04-05 16:46:14
# … with 244 more rows
…
Parsed with column specification:
cols(
  OBJECTID_1 = col_double(),
  OBJECTID = col_double(),
  County = col_character(),
  FIPS = col_double(),
  COUNTYFP10 = col_character(),
  Shape_Leng = col_double(),
  Count_ = col_double(),
  LastUpdate = col_datetime(format = ""),
  Shape__Area = col_double(),
  Shape__Length = col_double(),
  Deaths = col_double()
)
# A tibble: 254 x 5
   County    Cases Date       Deaths LastUpdate         
   <chr>     <dbl> <date>      <dbl> <chr>              
 1 Anderson      1 2020-04-05      0 2020-04-05 16:46:14
 2 Andrews       6 2020-04-05      0 2020-04-05 16:46:14
 3 Angelina     14 2020-04-05      0 2020-04-05 16:46:14
 4 Aransas       1 2020-04-05      0 2020-04-05 16:46:14
 5 Archer        0 2020-04-05      0 2020-04-05 16:46:14
 6 Armstrong     0 2020-04-05      0 2020-04-05 16:46:14
 7 Atascosa      3 2020-04-05      0 2020-04-05 16:46:14
 8 Austin        5 2020-04-05      0 2020-04-05 16:46:14
 9 Bailey        0 2020-04-05      0 2020-04-05 16:46:14
10 Bandera       0 2020-04-05      0 2020-04-05 16:46:14
# … with 244 more rows
…
Parsed with column specification:
cols(
  OBJECTID_1 = col_double(),
  OBJECTID = col_double(),
  County = col_character(),
  FIPS = col_double(),
  COUNTYFP10 = col_character(),
  Shape_Leng = col_double(),
  Count_ = col_double(),
  LastUpdate = col_datetime(format = ""),
  Shape__Area = col_double(),
  Shape__Length = col_double(),
  Deaths = col_double()
)
# A tibble: 254 x 5
   County    Cases Date       Deaths LastUpdate         
   <chr>     <dbl> <date>      <dbl> <chr>              
 1 Anderson      1 2020-04-06      0 2020-04-07 16:49:18
 2 Andrews      10 2020-04-06      0 2020-04-07 16:49:18
 3 Angelina     14 2020-04-06      0 2020-04-07 16:49:18
 4 Aransas       1 2020-04-06      0 2020-04-07 16:49:18
 5 Archer        0 2020-04-06      0 2020-04-07 16:49:18
 6 Armstrong     0 2020-04-06      0 2020-04-07 16:49:18
 7 Atascosa      4 2020-04-06      0 2020-04-07 16:49:18
 8 Austin        6 2020-04-06      0 2020-04-07 16:49:18
 9 Bailey        0 2020-04-06      0 2020-04-07 16:49:18
10 Bandera       0 2020-04-06      0 2020-04-07 16:49:18
# … with 244 more rows
…
Parsed with column specification:
cols(
  OBJECTID_1 = col_double(),
  OBJECTID = col_double(),
  County = col_character(),
  FIPS = col_double(),
  COUNTYFP10 = col_character(),
  Shape_Leng = col_double(),
  Count_ = col_double(),
  LastUpdate = col_datetime(format = ""),
  Shape__Area = col_double(),
  Shape__Length = col_double(),
  Deaths = col_double()
)
# A tibble: 254 x 5
   County    Cases Date       Deaths LastUpdate         
   <chr>     <dbl> <date>      <dbl> <chr>              
 1 Anderson      1 2020-04-07      0 2020-04-08 17:01:58
 2 Andrews      10 2020-04-07      0 2020-04-08 17:01:58
 3 Angelina     14 2020-04-07      0 2020-04-08 17:01:58
 4 Aransas       2 2020-04-07      0 2020-04-08 17:01:58
 5 Archer        0 2020-04-07      0 2020-04-08 17:01:58
 6 Armstrong     0 2020-04-07      0 2020-04-08 17:01:58
 7 Atascosa      5 2020-04-07      0 2020-04-08 17:01:58
 8 Austin        7 2020-04-07      0 2020-04-08 17:01:58
 9 Bailey        0 2020-04-07      0 2020-04-08 17:01:58
10 Bandera       0 2020-04-07      0 2020-04-08 17:01:58
# … with 244 more rows
…
Parsed with column specification:
cols(
  OBJECTID_1 = col_double(),
  OBJECTID = col_double(),
  County = col_character(),
  FIPS = col_double(),
  COUNTYFP10 = col_character(),
  Shape_Leng = col_double(),
  Count_ = col_double(),
  LastUpdate = col_datetime(format = ""),
  Shape__Area = col_double(),
  Shape__Length = col_double(),
  Deaths = col_double()
)
# A tibble: 254 x 5
   County    Cases Date       Deaths LastUpdate         
   <chr>     <dbl> <date>      <dbl> <chr>              
 1 Anderson      2 2020-04-08      0 2020-04-09 17:09:16
 2 Andrews      10 2020-04-08      0 2020-04-09 17:09:16
 3 Angelina     15 2020-04-08      0 2020-04-09 17:09:16
 4 Aransas       2 2020-04-08      0 2020-04-09 17:09:16
 5 Archer        0 2020-04-08      0 2020-04-09 17:09:16
 6 Armstrong     0 2020-04-08      0 2020-04-09 17:09:16
 7 Atascosa      5 2020-04-08      0 2020-04-09 17:09:16
 8 Austin        7 2020-04-08      0 2020-04-09 17:09:16
 9 Bailey        0 2020-04-08      0 2020-04-09 17:09:16
10 Bandera       1 2020-04-08      0 2020-04-09 17:09:16
# … with 244 more rows
…
Parsed with column specification:
cols(
  OBJECTID_1 = col_double(),
  OBJECTID = col_double(),
  County = col_character(),
  FIPS = col_double(),
  COUNTYFP10 = col_character(),
  Shape_Leng = col_double(),
  Count_ = col_double(),
  LastUpdate = col_datetime(format = ""),
  Shape__Area = col_double(),
  Shape__Length = col_double(),
  Deaths = col_double()
)
# A tibble: 254 x 5
   County    Cases Date       Deaths LastUpdate         
   <chr>     <dbl> <date>      <dbl> <chr>              
 1 Anderson      2 2020-04-09      0 2020-04-10 17:00:52
 2 Andrews      11 2020-04-09      0 2020-04-10 17:00:52
 3 Angelina     16 2020-04-09      0 2020-04-10 17:00:52
 4 Aransas       2 2020-04-09      0 2020-04-10 17:00:52
 5 Archer        0 2020-04-09      0 2020-04-10 17:00:52
 6 Armstrong     0 2020-04-09      0 2020-04-10 17:00:52
 7 Atascosa      7 2020-04-09      0 2020-04-10 17:00:52
 8 Austin        8 2020-04-09      0 2020-04-10 17:00:52
 9 Bailey        0 2020-04-09      0 2020-04-10 17:00:52
10 Bandera       1 2020-04-09      0 2020-04-10 17:00:52
# … with 244 more rows
…
Parsed with column specification:
cols(
  OBJECTID_1 = col_double(),
  OBJECTID = col_double(),
  County = col_character(),
  FIPS = col_double(),
  COUNTYFP10 = col_character(),
  Shape_Leng = col_double(),
  Count_ = col_double(),
  LastUpdate = col_datetime(format = ""),
  Shape__Area = col_double(),
  Shape__Length = col_double(),
  Deaths = col_double()
)
# A tibble: 254 x 5
   County    Cases Date       Deaths LastUpdate         
   <chr>     <dbl> <date>      <dbl> <chr>              
 1 Anderson      3 2020-04-10      0 2020-04-11 16:37:06
 2 Andrews      11 2020-04-10      0 2020-04-11 16:37:06
 3 Angelina     16 2020-04-10      0 2020-04-11 16:37:06
 4 Aransas       2 2020-04-10      0 2020-04-11 16:37:06
 5 Archer        0 2020-04-10      0 2020-04-11 16:37:06
 6 Armstrong     0 2020-04-10      0 2020-04-11 16:37:06
 7 Atascosa      8 2020-04-10      0 2020-04-11 16:37:06
 8 Austin        8 2020-04-10      0 2020-04-11 16:37:06
 9 Bailey        0 2020-04-10      0 2020-04-11 16:37:06
10 Bandera       2 2020-04-10      0 2020-04-11 16:37:06
# … with 244 more rows
…
